{
    "mongoURI": "mongodb://127.0.0.1:27017/mern-stack",
    "jwt_config": {
        "api_secret": "fbzSutQDdRxu4WIhFD7Q7IUqDLM",
        "cloud_name": "di6rpynmf", 
        "api_key": "882648716287178",
        "jwt_secret": "https://jwt.io/#debugger-io?token=eyJhbGciOiJIUzI1NiIsInR5cCI6IkpXVCJ9.eyJzdWIiOiIxMjM0NTY3ODkwIiwibmFtZSI6IkpvaG4gRG9lIiwiaWF0IjoxNTE2MjM5MDIyfQ.SflKxwRJSMeKKF2QT4fwpMeJf36POk6yJV_adQssw5c"
    }
}